{
  "Dashboard.h1": "Limao",
  "Dashboard.h2-1": "Taste the different",
  "Dashboard.h2-2": "All you can eat",
  "Dashboard.h3-1": "Limao.",
  "Dashboard.h3-2": "Limao.",
  "Dashboard.p-1": "Taste the different",
  "Dashboard.p-2": "All you can eat",
  "Partner.h1-1": "Pendaftaran Bisnis",
  "Partner.h3-1": "Daftarkan Bisnis Anda Gratis",
  "Owner.header": "INDIVIDU",
  "Owner.data": "Pemilik",
  "Owner.name": "Nama Pemilik",
  "Owner.phone": "Telpon Pemilik",
  "Owner.email": "Email Pemilik",
  "Owner.idType": "ID Type",
  "Owner.idNo": "No Pengenal",
  "Owner.address": "Alamat Pemilik",
  "Owner.taxId": "No. NPWP",
  "Owner.accData": "Daftar Rekening",
  "Owner.accBank": "Bank",
  "Owner.accNo": "No Rekening",
  "Owner.accName": "Nama Akun",
  "Company.header": "PERUSAHAAN",
  "Company.brand": "Nama Restoran",
  "Company.type": "Bussiness Type",
  "Company.name": "Company Name",
  "Company.phone": "No. Telepon",
  "Company.idNo": "Bussiness ID",
  "Company.address": "Alamat Perusahaan",
  "Company.taxId": "No NPWP",
  "Outlet.header": "OUTLET",
  "Outlet.list": "Daftar Outlet",
  "Outlet.city": "Kota",
  "Outlet.address": "Alamat Outlet",
  "Outlet.phone": "No.telp"
}